1	1	-1.244169857925876
1	2	-1.5295504971944116
1	3	-0.8527179097343986
1	4	-1.5248654945507183
1	5	-1.1081287438849954
1	6	-1.4270441154442564
1	7	-1.5099355457828652
1	8	-0.9350762887960701
1	9	-1.225762710882387
1	10	-1.4429244105906371
1	11	-1.4641405278415212
1	12	-1.0441045010491619
1	13	-1.263175637709319
1	14	-1.2738048377645508
1	15	-0.47829062913550524
1	16	-0.4624499685349631
1	17	-0.39008461723640103
1	18	-0.2429406549813076
1	19	-0.5907927844153076
1	20	-0.07135381529821083
1	21	-0.18503483724172115
1	22	-0.39115409263767426
1	23	-0.37571183362111066
1	24	-0.34259091421721427
1	25	-0.31252974798656524
1	26	-0.08884923082221766
1	27	-0.3912073612463419
1	28	-0.13153333774434894
1	29	-0.1746235099659633
1	30	-0.3191266303202892
1	31	-0.33144327972824944
1	32	-0.08552852308965143
1	33	-0.2339162877219107
1	34	-0.17706024545708351
1	35	-0.23707983870756877
1	36	-0.16011608434301125
1	37	-0.132981251998306
1	38	-0.11878590944405423
1	39	-0.05905461370675286
1	40	-0.08012184101405491
1	41	-0.03250546053109064
1	42	-0.14340581231686264
1	43	-0.05790320003865266
1	44	-0.06235703931042053
1	45	-0.1267035846464023
1	46	-0.0507058294558409
1	47	-0.06772308047265162
1	48	-0.19932294195949526
1	49	-0.13441148755913454
1	50	-0.10781527404214232
1	51	-0.047009458013473164
1	52	-0.09541220169450071
1	53	-0.03986655094995783
1	54	-0.10287191139954313
1	55	-0.09259855843786792
1	56	-0.18099582171591017
1	57	-0.12371883394606742
1	58	-0.08361792998742237
1	59	-0.14235757365512816
1	60	-0.11888396882315669
1	61	-0.18816605876329107
1	62	-0.05662857157844644
1	63	-0.17509617381881537
1	64	-0.1199134560546797
1	65	-0.10507829507372073
1	66	-0.06877649218534379
1	67	-0.064272636178659
1	68	-0.12908604929622966
1	69	-0.15277114768885736
1	70	-0.1445124905559688
1	71	-0.06676829188100189
1	72	-0.17155545678663348
1	73	-0.15789325774699528
1	74	-0.0531217187098547
1	75	-0.06058731058452405
1	76	-0.0730320589721145
1	77	-0.18997067164499565
1	78	-0.09771456695932566
1	79	-0.10747653976361109
1	80	-0.0582661020863149
1	81	-0.0673510084747044
1	82	-0.08202792941871752
1	83	-0.19330385316642945
1	84	-0.10853724590812092
1	85	-0.09540692707843189
1	86	-0.11911115518408538
1	87	-0.038341465461743905
1	88	-0.029032406878418904
1	89	-0.1097117737415819
1	90	-0.11033132270048525
1	91	-0.0320513224073545
1	92	-0.009489759311623703
1	93	-0.07261639892036323
1	94	-0.04278253605964672
1	95	-0.052082531646314684
1	96	-0.07907347075473135
1	97	-0.10006834995223633
1	98	-0.10182900085651359
1	99	-0.1514686739190775
1	100	-0.12497918610804314
2	1	-0.38935271635124
2	2	-0.39482493093460813
2	3	-0.2366300033141623
2	4	-0.33657946586967097
2	5	-0.2679041745326876
2	6	-0.351130430150546
2	7	-0.2693206350151806
2	8	-0.44388762644846225
2	9	-0.47582006495205953
2	10	-0.4337602025698274
2	11	-0.3579368072889155
2	12	-0.340269216866683
2	13	-0.3672600462899854
2	14	-0.6870054229720726
2	15	-0.3366224093896873
2	16	-0.1718971027848193
2	17	-0.2304360707659486
2	18	-0.1586472498814976
2	19	-0.11567542533123765
2	20	-0.09194085879756966
2	21	-0.16758411022186187
2	22	-0.1447334749471666
2	23	-0.1350163125002902
2	24	-0.05112198888335425
2	25	-0.1502158809066372
2	26	-0.04731063772897896
2	27	-0.0780844617315921
2	28	-0.05617864386338778
2	29	-0.08898420285470603
2	30	-0.03316481545072802
2	31	-0.014678041654569587
2	32	-0.07555854159913922
2	33	-0.13333696220891156
2	34	-0.10526866145335366
2	35	-0.06883083311890435
2	36	-0.12475898136889413
2	37	-0.03227282285604054
2	38	-0.2004931697665435
2	39	-0.11263649914796638
2	40	-0.10383859777486934
2	41	-0.027749300926059546
2	42	-0.0771394567911634
2	43	-0.13326032749470498
2	44	-0.09308347539535865
2	45	-0.03738769599577561
2	46	-0.08552513113801617
2	47	-0.011554766380699879
2	48	-0.0867497717676401
2	49	-0.12033695463114183
2	50	-0.05068229227234133
2	51	-0.11170316665608628
2	52	-0.03143309932258988
2	53	-0.06607592811152989
2	54	-0.07185986068696673
2	55	-0.08996073648157002
2	56	-0.006887581664029711
2	57	-0.09770485074568735
2	58	-0.07110963390538588
2	59	-0.029064073084448156
2	60	-0.04599666979580255
2	61	-0.07518319751932
2	62	-0.06222652134595856
2	63	-0.07212532091899285
2	64	-0.09030110787219639
2	65	-0.03149631731275054
2	66	-0.06292491841886881
2	67	-0.07235586206077536
2	68	-0.05510953478238133
2	69	-0.045096708448239056
2	70	-0.05843609840564194
2	71	-0.08055984434297259
2	72	-0.07007419136612053
2	73	-0.03238561336782013
2	74	-0.07840754530712464
2	75	-0.0533796100046062
2	76	-0.06006095275837691
2	77	-0.018966349203237687
2	78	-0.08896641532652448
2	79	-0.06292886489416098
2	80	-0.0779991939923538
2	81	-0.04054486663103319
2	82	-0.03301311247635815
2	83	-0.06541624657519168
2	84	-0.08256824110006115
2	85	-0.03177565415891053
2	86	-0.05581121543071112
2	87	-0.01858941425309964
2	88	-0.050534617241038825
2	89	-0.03207474052958355
2	90	-0.04696673408118073
2	91	-0.029101160866548226
2	92	-0.05143587794390382
2	93	-0.05295111572243127
2	94	-0.07034622772692209
2	95	-0.021347592835730938
2	96	-0.02919353451819069
2	97	-0.040407870721901946
2	98	-0.03905314507207941
2	99	-0.03813268306757517
2	100	-0.028332623440772194
3	1	-0.10944429166616503
3	2	-0.10944429166616504
3	3	-0.16400000573411286
3	4	-0.0902915406244244
3	5	-0.10506651999947166
3	6	-0.0778270518512131
3	7	-0.1213597195206368
3	8	-0.1434583970758032
3	9	-0.2059898937217155
3	10	-0.3909617621626483
3	11	-0.1643165249422659
3	12	-0.14059108779419013
3	13	-0.1379145540108283
3	14	-0.3101606256674292
3	15	-0.2796909675926976
3	16	-1.8488204180480592
3	17	-1.0821697527706757
3	18	-1.3593230556741958
3	19	-1.5199490663277873
3	20	-1.9463025554573552
3	21	-1.7483556933720568
3	22	-1.7721849791404523
3	23	-1.8810133441535657
3	24	-1.6328632253810083
3	25	-2.0074761201989952
3	26	-2.1788781949775604
3	27	-1.8593146510072285
3	28	-1.7216483738978516
3	29	-2.1129755923169524
3	30	-1.5474135219435443
3	31	-1.7070699680725379
3	32	-1.6506459108670977
3	33	-2.0047461213199624
3	34	-2.134732993814297
3	35	-1.7671157324831515
3	36	-1.719650581272174
3	37	-1.8494519264629543
3	38	-1.743856989224153
3	39	-1.6496638732682698
3	40	-1.9369085870892597
3	41	-1.9405582480003167
3	42	-2.0032684112621917
3	43	-1.7529966132548138
3	44	-1.8655354971833298
3	45	-1.7321545319496474
3	46	-1.8411943448959496
3	47	-1.799003437900896
3	48	-1.860461630368995
3	49	-2.0019807875779656
3	50	-1.8289414646208448
3	51	-1.8794930009957285
3	52	-1.7664551010243168
3	53	-1.8133870389560425
3	54	-1.902674195507904
3	55	-2.0648723742161246
3	56	-1.7206711927222476
3	57	-2.072545077206557
3	58	-2.1488876016512264
3	59	-2.003216805874665
3	60	-1.9750588641563904
3	61	-1.9815431540469444
3	62	-1.8088555818807377
3	63	-1.854308440457277
3	64	-2.1250332646907717
3	65	-2.0959324630117697
3	66	-1.86669626997374
3	67	-2.1014783697253203
3	68	-2.006630154941775
3	69	-1.9807737284410079
3	70	-1.860336435355875
3	71	-2.170717047189853
3	72	-2.201770567707254
3	73	-1.9927662430012427
3	74	-2.0538775649501417
3	75	-1.7993554251138297
3	76	-1.9737656746115322
3	77	-1.8666962699737384
3	78	-1.8429981218366014
3	79	-2.160323266657632
3	80	-1.8575231167177588
3	81	-1.9653264556916956
3	82	-1.9206737747991331
3	83	-2.027008593476203
3	84	-2.081045134863364
3	85	-2.0581073468061444
3	86	-2.0882572161359114
3	87	-2.1627452419753053
3	88	-2.0144328948600703
3	89	-1.9940122974459096
3	90	-2.0217047205450474
3	91	-1.8599439388722188
3	92	-2.0511131452948552
3	93	-2.0991904271016937
3	94	-2.055282290690448
3	95	-2.216269037373186
3	96	-2.101683360895925
3	97	-1.9922057854084685
3	98	-2.0619560694462256
3	99	-2.1740710716178935
3	100	-2.0465338835513553
4	1	-1.4005407140185047
4	2	-1.4878464997037684
4	3	-1.5810660920492834
4	4	-1.7486021733472026
4	5	-2.0425060192666065
4	6	-2.404541154120391
4	7	-1.6857320995397185
4	8	-2.256289025854266
4	9	-2.0408001508189266
4	10	-1.7888642245815292
4	11	-1.4577798833569473
4	12	-1.6798827228024222
4	13	-1.6933579525925815
4	14	-2.1083541428332273
4	15	-0.6996752093887364
4	16	-0.5785472926950554
4	17	-0.3906312917834348
4	18	-0.4856871395711161
4	19	-0.3432547960721848
4	20	-0.17981117690709553
4	21	-0.30304630397064086
4	22	-0.47314653042497706
4	23	-0.23959361424764938
4	24	-0.20867533235908833
4	25	-0.43419185669688537
4	26	-0.2842345835609877
4	27	-0.24160514856471854
4	28	-0.30246800008621133
4	29	-0.3945740256779289
4	30	-0.2923249872953163
4	31	-0.2387433419916815
4	32	-0.32904560356839985
4	33	-0.19423012743152668
4	34	-0.1697357674863778
4	35	-0.21938007068451543
4	36	-0.2293988116609294
4	37	-0.371453499948499
4	38	-0.1739405994207816
4	39	-0.20744981126232206
4	40	-0.22821913810443437
4	41	-0.23371431535699191
4	42	-0.17679592706047295
4	43	-0.2813990234710428
4	44	-0.19631282039904593
4	45	-0.2753924849993195
4	46	-0.18746025055067522
4	47	-0.2514309321867792
4	48	-0.23970854138505956
4	49	-0.13251731468389946
4	50	-0.20604937994918596
4	51	-0.21535334876440473
4	52	-0.27289136224493765
4	53	-0.24346041231574164
4	54	-0.30523498922557457
4	55	-0.29033904484844997
4	56	-0.19466542417606666
4	57	-0.1722765341673508
4	58	-0.23880897338932255
4	59	-0.1856048609282168
4	60	-0.186950020630338
4	61	-0.18462181345990994
4	62	-0.1807428517524088
4	63	-0.1746890308030218
4	64	-0.21206266597622328
4	65	-0.18723566525978683
4	66	-0.1895015010540386
4	67	-0.25625203778994254
4	68	-0.16962337770057884
4	69	-0.2057897279424215
4	70	-0.2021937607742103
4	71	-0.18508062386842777
4	72	-0.18362689608130114
4	73	-0.14550276093783895
4	74	-0.19800486840819578
4	75	-0.2657025083890037
4	76	-0.17575810127360444
4	77	-0.17604693522581713
4	78	-0.2098607404549361
4	79	-0.2293342243842085
4	80	-0.19686624569193095
4	81	-0.20449555925050628
4	82	-0.21458616449659804
4	83	-0.2311103879912885
4	84	-0.17214112136738394
4	85	-0.19674714031951832
4	86	-0.1677426655905384
4	87	-0.21464848215254018
4	88	-0.18175429103788715
4	89	-0.1550139143601875
4	90	-0.14852505981542213
4	91	-0.14727018194261637
4	92	-0.14892811585440516
4	93	-0.18325690918459878
4	94	-0.2189755479560581
4	95	-0.1906347429848089
4	96	-0.17836096256340292
4	97	-0.15700988246271688
4	98	-0.17573623325691723
4	99	-0.12211212698355967
4	100	-0.20674405788949582
5	1	-0.25901815694456376
5	2	-0.20429601111095758
5	3	-0.8211006699195976
5	4	-0.39155125935171475
5	5	-0.857935374136885
5	6	-0.45571053107686676
5	7	-0.5486147005104571
5	8	-0.6769318986202395
5	9	-0.633684355006071
5	10	-0.46684313771832764
5	11	-0.5404032665470115
5	12	-0.405935791866995
5	13	-0.5830852894968519
5	14	-0.9721254805936873
5	15	-0.3030825745664858
5	16	-0.1838471855834976
5	17	-0.15822547638226792
5	18	-0.18241565699793658
5	19	-0.15783018903418175
5	20	-0.17341927276117935
5	21	-0.2526763828863799
5	22	-0.19373557979285333
5	23	-0.22698459949854757
5	24	-0.19598366938183776
5	25	-0.18653913966202268
5	26	-0.1675339541658372
5	27	-0.19339423626113636
5	28	-0.18739933501561148
5	29	-0.19414608280248083
5	30	-0.21347650334418353
5	31	-0.1882268292799417
5	32	-0.18131870063049313
5	33	-0.22366663177644996
5	34	-0.1993501052317115
5	35	-0.17996700488645803
5	36	-0.18608728657063386
5	37	-0.1958071861888049
5	38	-0.2143976023758379
5	39	-0.19343624665487974
5	40	-0.17969983714954765
5	41	-0.17513895609435895
5	42	-0.16051829444353247
5	43	-0.17877418114635404
5	44	-0.17763575879165994
5	45	-0.17748748478098975
5	46	-0.1974354805019419
5	47	-0.18752271069927515
5	48	-0.22050461515343897
5	49	-0.194440915329816
5	50	-0.1776146372750121
5	51	-0.18797008696753015
5	52	-0.1945885389646092
5	53	-0.16936005431109255
5	54	-0.17404201633958877
5	55	-0.17016614362403196
5	56	-0.16103945773717257
5	57	-0.19923642436070021
5	58	-0.18885395673408784
5	59	-0.15538616099244854
5	60	-0.16486277975706204
5	61	-0.19320173946302702
5	62	-0.15710551545605156
5	63	-0.180830242029058
5	64	-0.17540607114321435
5	65	-0.19530531376376492
5	66	-0.1763693784182518
5	67	-0.16577012571521052
5	68	-0.17147965988333633
5	69	-0.1635102693460995
5	70	-0.20528564897740031
5	71	-0.16839600647271755
5	72	-0.1816353797151673
5	73	-0.16523167956396656
5	74	-0.16134288689420712
5	75	-0.16671117223854826
5	76	-0.16446960230045732
5	77	-0.16848635164623507
5	78	-0.1679164864185663
5	79	-0.1923667371575569
5	80	-0.16463685121314614
5	81	-0.17667062218472138
5	82	-0.1677780467524657
5	83	-0.17084921846805354
5	84	-0.16418609180703733
5	85	-0.16110741693980968
5	86	-0.18216780259341098
5	87	-0.16347255853268058
5	88	-0.17761306355082954
5	89	-0.16181315615010167
5	90	-0.16357120995169983
5	91	-0.1659776331998964
5	92	-0.1762516344266274
5	93	-0.16708164451718624
5	94	-0.17103744172052388
5	95	-0.17191989726652557
5	96	-0.1693258327172272
5	97	-0.16595111466898863
5	98	-0.17583656825663546
5	99	-0.16082977026484818
5	100	-0.16367220708997798
6	1	-0.25537001388885355
6	2	-0.5024451510739234
6	3	-0.23712929861100585
6	4	-0.23505557943481364
6	5	-0.27195175382574954
6	6	-0.3370371532251477
6	7	-0.31324100748116035
6	8	-0.411822416390869
6	9	-0.3256233933538899
6	10	-0.38741347816635363
6	11	-0.2997795548095538
6	12	-0.27666360471112517
6	13	-0.7471482800811096
6	14	-0.8052490967300353
6	15	-0.3159291886112888
6	16	-0.14159355234275728
6	17	-0.1554650902396159
6	18	-0.16619318364127056
6	19	-0.08409929780564769
6	20	-0.05344529576228951
6	21	-0.11569825118938468
6	22	-0.14088289596860723
6	23	-0.1216576401559177
6	24	-0.04301768686174731
6	25	-0.044361419553881384
6	26	-0.06647004683461818
6	27	-0.08404240668585385
6	28	-0.10583727955880669
6	29	-0.007296286109171519
6	30	-0.052621578413796326
6	31	-0.03377474377065713
6	32	-0.10381126367750011
6	33	-0.10474067986176656
6	34	-0.04002227528424457
6	35	-0.044924275911036496
6	36	-0.04063626014489874
6	37	-0.06694835499100203
6	38	-0.027745087973354777
6	39	-0.07602414650043905
6	40	-0.055779141601123294
6	41	-0.04747830501725512
6	42	-0.04056387635413519
6	43	-0.07415062861612493
6	44	-0.07712330483808803
6	45	-0.04937153601688202
6	46	-0.04235018242584659
6	47	-0.042980269406484646
6	48	-0.043245695802722285
6	49	-0.07010311984429056
6	50	-0.016854420914790186
6	51	-0.015880152122316436
6	52	-0.025256374998187114
6	53	-0.013491246014879218
6	54	-0.0404488722146746
6	55	-0.06233470831851435
6	56	-0.049836239953724784
6	57	-0.04147362631409983
6	58	-0.03358807571663605
6	59	-0.02182702539835256
6	60	-0.026692246688015394
6	61	-0.012738597880609739
6	62	-0.046896290567347475
6	63	-0.05957048592817277
6	64	-0.02924214667790251
6	65	-0.029955535399344684
6	66	-0.027913821862687236
6	67	-0.016716118178070363
6	68	-0.04252910076981956
6	69	-0.024782326120813304
6	70	-0.011413476129037337
6	71	-0.04578162623073433
6	72	-0.03250153694933526
6	73	-0.02553700138708123
6	74	-0.03981353652528959
6	75	-0.02281305457224007
6	76	-0.011760461164034503
6	77	-0.02425778239356519
6	78	-0.04844202070299876
6	79	-0.01934901190039812
6	80	-0.0270874621857008
6	81	-0.014907843842423038
6	82	-0.02816188480512761
6	83	-0.013098152173466224
6	84	-0.019630484058991853
6	85	-0.01678145805367847
6	86	-0.022270640744287085
6	87	-0.01979222439150973
6	88	-0.019360031895245586
6	89	-0.016970013762175877
6	90	-0.020974899126917565
6	91	-0.01547454087112942
6	92	-0.019390673413002577
6	93	-0.026109305257425622
6	94	-0.030543495580382364
6	95	-0.041923932904334
6	96	-0.01368053645643586
6	97	-0.005453409720262988
6	98	-0.015002057665349879
6	99	-0.028816645144132434
6	100	-0.04314754643960692
7	1	-0.058370288888158484
7	2	-0.02736107291578986
7	3	-0.12038872083290275
7	4	-0.0446897524297635
7	5	-0.05472214583258613
7	6	-0.10762022013839412
7	7	-0.09641520932483746
7	8	-0.05426612795063446
7	9	-0.05391144737579626
7	10	-0.0704091609715449
7	11	-0.09783656376206545
7	12	-0.053506098147395265
7	13	-0.059212168054839386
7	14	-0.0583702888881675
7	15	-0.2115922972220138
7	16	-0.08094317404399098
7	17	-0.07446503766217369
7	18	-0.07073344035367686
7	19	-0.06797066534944977
7	20	-0.039764759304077926
7	21	-0.005385354032511387
7	22	-0.01824071527604237
7	23	-0.042350182426114054
7	24	-0.021432840449776173
7	25	-0.028747367276110814
7	26	-0.020064786803880217
7	27	-0.029590493671345038
7	28	-0.01771955198238716
7	29	-0.03811680502717905
7	30	-0.034900568563335496
7	31	-0.007296286109273647
7	32	-0.014592572220446904
7	33	-0.008954532952769177
7	34	-0.012124710741726464
7	35	-0.014488339561702495
7	36	-0.01884873911862281
7	37	-0.01981829065143189
7	38	-0.012384485634154455
7	39	-0.01375069305385089
7	40	-0.009485171942637172
7	41	-0.013791760330162875
7	42	-0.025623861936211783
7	43	-0.02137981511451328
7	44	-0.02139138427862716
7	45	-0.02051067095510589
7	46	-0.030612678681927696
7	47	-0.021190277746535643
7	48	-0.011628455987760078
7	49	-0.019059686166071992
7	50	-0.008682580470341983
7	51	-0.013090395668132328
7	52	-0.0012628187480253474
7	53	-0.017277054846216448
7	54	-0.021551067307972693
7	55	-0.01817438540226673
7	56	-0.013875972691640199
7	57	-0.02188885833162692
7	58	-0.026983678805783652
7	59	-0.01044976569962178
7	60	-0.01720707474360639
7	61	-0.013934710357940779
7	62	-0.013651115948060327
7	63	-0.019283041863357317
7	64	-0.009861386695153702
7	65	-0.007913664164780626
7	66	-0.0072410112144851045
7	67	-0.010508829994008003
7	68	-0.011963763253893903
7	69	-0.002326352091466215
7	70	-0.02866398114910792
7	71	-0.00919743108190805
7	72	-0.011603121660944883
7	73	-0.008045904545288732
7	74	-0.014395375298499324
7	75	-0.006809867035188475
7	76	-0.009360367048588008
7	77	-0.008196477252803695
7	78	-0.01099120022964741
7	79	-0.007850434421458646
7	80	-0.024852974564323328
7	81	-0.015042960251962069
7	82	-0.006717921966261188
7	83	-0.007428146701598055
7	84	-0.01589548045456231
7	85	-0.006738334818351023
7	86	-0.010265704875402286
7	87	-0.0074220841456346595
7	88	-0.016167906721738283
7	89	-0.004344979367591242
7	90	-0.010944429164837531
7	91	-0.011986755752144487
7	92	-0.008604859161816913
7	93	-0.002549777402475503
7	94	-0.01238040036753719
7	95	-0.011981269822709783
7	96	-0.00490219222898737
7	97	-0.009778527775883587
7	98	-0.014964831715888057
7	99	-0.010428530146858066
7	100	-0.002809070150820714
8	1	-0.6838537132586351
8	2	-1.0203083553051928
8	3	-1.4561460440060834
8	4	-1.0676093912034161
8	5	-0.8344873995218032
8	6	-0.6040106454501882
8	7	-0.6558535512004919
8	8	-0.8034119447378576
8	9	-0.8230164615511023
8	10	-0.77970001656078
8	11	-1.0383378554171776
8	12	-0.7533892273529986
8	13	-0.8051729029954083
8	14	-0.8021330509664943
8	15	-0.3281997295876237
8	16	-0.18586806009617368
8	17	-0.2156876425162478
8	18	-0.2777174727406851
8	19	-0.20812599625610073
8	20	-0.14208551484555126
8	21	-0.1457190278546351
8	22	-0.11661136433079773
8	23	-0.06589697086466462
8	24	-0.06458810746886881
8	25	-0.21242630523648004
8	26	-0.05422439158730141
8	27	-0.1217882087248822
8	28	-0.09424686327412624
8	29	-0.2117617047468274
8	30	-0.0313074575697144
8	31	-0.1788964434943283
8	32	-0.09293881367135248
8	33	-0.07432899623726465
8	34	-0.13853564448864195
8	35	-0.1583041062676562
8	36	-0.11515542371153509
8	37	-0.11558330227813443
8	38	-0.09617755007823468
8	39	-0.11581693155534677
8	40	-0.10686462507737278
8	41	-0.042155470576705274
8	42	-0.06452914454506371
8	43	-0.10958981790137372
8	44	-0.1217746247862699
8	45	-0.1319509337135014
8	46	-0.04581047556778471
8	47	-0.067677330320291
8	48	-0.087077776742377
8	49	-0.0754800942779151
8	50	-0.0450941096845284
8	51	-0.021849697916033087
8	52	-0.11254295701826551
8	53	-0.05357660452229848
8	54	-0.06151420915349631
8	55	-0.06072741835570018
8	56	-0.07249447825191375
8	57	-0.07422200369157955
8	58	-0.08653974968437705
8	59	-0.06382523865241166
8	60	-0.013647250103293344
8	61	-0.04484286644130746
8	62	-0.09503811836357923
8	63	-0.08708604553610284
8	64	-0.06995671956708314
8	65	-0.05872178706511214
8	66	-0.047154123912573696
8	67	-0.033832859401888876
8	68	-0.02071082787197628
8	69	-0.07578840424645217
8	70	-0.040759343161091664
8	71	-0.04620402893063018
8	72	-0.09434179386987443
8	73	-0.0481591530341472
8	74	-0.05243620812265895
8	75	-0.0719408468224552
8	76	-0.04594182968410677
8	77	-0.07232048308000404
8	78	-0.04006556139182694
8	79	-0.0498645830535015
8	80	-0.05457668498410888
8	81	-0.0629945728476185
8	82	-0.08303901112224572
8	83	-0.027618537123898244
8	84	-0.06722546622831585
8	85	-0.07614022104747968
8	86	-0.060272929292352416
8	87	-0.03658779147252981
8	88	-0.06310325039001273
8	89	-0.011659815612076409
8	90	-0.036335488846009636
8	91	-0.04592945283049557
8	92	-0.03158940440433242
8	93	-0.01716010190290146
8	94	-0.06863327464443175
8	95	-0.017682071234164126
8	96	-0.03942793189858137
8	97	-0.0314876410781092
8	98	-0.03646927000340552
8	99	-0.025332578190444457
8	100	-0.009319274408403357
9	1	-2.8219716957777994
9	2	-3.45814990166663
9	3	-3.6399745432654846
9	4	-3.09823197740736
9	5	-0.7860017188144965
9	6	-2.225065392009108
9	7	-2.5285130254575923
9	8	-3.1300284053193668
9	9	-2.531524191154281
9	10	-3.536385259242685
9	11	-2.858934863144686
9	12	-3.1570438583734552
9	13	-2.899959199633777
9	14	-2.7877998360936442
9	15	-1.1839537517995475
9	16	-0.7356117428591047
9	17	-0.46934753076891983
9	18	-0.6091414922807288
9	19	-0.26345850000755994
9	20	-0.6197136359757596
9	21	-0.34021342161574236
9	22	-0.17067716942592553
9	23	-0.9330125528352211
9	24	-0.365708576567108
9	25	-0.4161093132192253
9	26	-0.441305464573152
9	27	-0.12258608424367026
9	28	-0.5747536961129279
9	29	-0.24929451071593894
9	30	-0.42350057501639177
9	31	-0.3430714643687342
9	32	-0.26955565657655534
9	33	-0.16862675257168513
9	34	-0.1570146460416878
9	35	-0.10992151343721598
9	36	-0.2071312297441441
9	37	-0.2675307220949943
9	38	-0.05053231551851391
9	39	-0.3379980871835847
9	40	-0.17415555348668046
9	41	-0.17456285963228935
9	42	-0.26071319735200676
9	43	-0.184769212672701
9	44	-0.17114060061777045
9	45	-0.17364982867150927
9	46	-0.1186823039461964
9	47	-0.09991741778000608
9	48	-0.22318385396165172
9	49	-0.40189351079612734
9	50	-0.15575107244499495
9	51	-0.24072613424270914
9	52	-0.2454209548739404
9	53	-0.1832656739046287
9	54	-0.08716142306463082
9	55	-0.13322524185344123
9	56	-0.08308024990982034
9	57	-0.10738943439396169
9	58	-0.048240216899430644
9	59	-0.17348165330767537
9	60	-0.1805177242300941
9	61	-0.19396654743567376
9	62	-0.1683583172639903
9	63	-0.10187854460018131
9	64	-0.10918923433987446
9	65	-0.2538545207191444
9	66	-0.1968995577117249
9	67	-0.12569380595921012
9	68	-0.04661093936057208
9	69	-0.15353527761122973
9	70	-0.1861364129483512
9	71	-0.0726561590007145
9	72	-0.1032546682928599
9	73	-0.08153267525992354
9	74	-0.13933824268507838
9	75	-0.21341192369410053
9	76	-0.150252893854845
9	77	-0.10255193011124665
9	78	-0.11082915508855147
9	79	-0.14145747553875082
9	80	-0.09484256311787834
9	81	-0.055378740801699335
9	82	-0.15744282746457033
9	83	-0.10331573858875262
9	84	-0.056893182562736684
9	85	-0.08063680347350952
9	86	-0.12982784568575476
9	87	-0.12388496861821131
9	88	-0.11278778847011837
9	89	-0.07441906395667262
9	90	-0.07839749726544756
9	91	-0.17614214068052497
9	92	-0.1248753766412188
9	93	-0.08435940447049393
9	94	-0.11987228835943926
9	95	-0.08659980790206458
9	96	-0.08161596414432248
9	97	-0.028576250344352908
9	98	-0.07835471124242757
9	99	-0.06263089209090662
9	100	-0.07568318819492252
10	1	-1.956709420333376
10	2	-1.0896230733610426
10	3	-0.8370757215926967
10	4	-1.1195954297452841
10	5	-0.9292392599072292
10	6	-1.1235059767807491
10	7	-1.2077597552697448
10	8	-1.1995425174072967
10	9	-1.0926631925740593
10	10	-0.913287289522156
10	11	-1.196171480429164
10	12	-0.7256697782420513
10	13	-1.2457383942676488
10	14	-1.5388601085806213
10	15	-1.4732705706580174
10	16	-2.9361392590826014
10	17	-2.638258954158573
10	18	-3.09306266176264
10	19	-3.411268703112219
10	20	-4.737850525716561
10	21	-5.098887111596752
10	22	-4.649070656189231
10	23	-4.627287221693806
10	24	-3.5359192502985866
10	25	-5.207227648566995
10	26	-4.636642673897845
10	27	-4.751714529025039
10	28	-3.934603923026237
10	29	-5.085596157931122
10	30	-4.941458396267407
10	31	-4.03023348746687
10	32	-5.166125485520293
10	33	-5.273500324063347
10	34	-4.468187954947253
10	35	-5.123539402455997
10	36	-5.24114571726119
10	37	-5.1480388364132486
10	38	-4.539669051448321
10	39	-4.641642739123821
10	40	-5.050102599772055
10	41	-5.1240882055769665
10	42	-5.358194053533215
10	43	-4.451060868156213
10	44	-5.566061453906147
10	45	-4.724857382102245
10	46	-4.589768138710333
10	47	-4.707220643662495
10	48	-5.416270353332884
10	49	-4.601838147260881
10	50	-4.584703483611964
10	51	-4.972226646767618
10	52	-5.489311454877688
10	53	-5.430940262400224
10	54	-5.09123912166417
10	55	-5.592095565099405
10	56	-5.491733384403844
10	57	-5.66714708594804
10	58	-4.535239986909607
10	59	-4.432891155083156
10	60	-4.957565257774191
10	61	-5.48055365239768
10	62	-5.432789493845535
10	63	-5.4462852288250465
10	64	-5.386189990741549
10	65	-4.485772095027444
10	66	-5.595977375729106
10	67	-5.337495296111017
10	68	-5.8220627962032045
10	69	-5.684593075508913
10	70	-4.977568227066887
10	71	-5.5034954041054265
10	72	-5.212000054702777
10	73	-4.983484964949933
10	74	-5.34143494174029
10	75	-5.166855399650215
10	76	-5.077505594237913
10	77	-5.15366092767393
10	78	-5.519419942589219
10	79	-5.572831384713234
10	80	-5.1063660500791626
10	81	-5.243629960487616
10	82	-5.450507854500811
10	83	-5.340828208087151
10	84	-4.976028417753946
10	85	-5.050416133877522
10	86	-5.743878554677637
10	87	-5.48334152693044
10	88	-5.74574898376848
10	89	-5.817574391445418
10	90	-5.523452950963569
10	91	-5.253850323652255
10	92	-5.397314629549306
10	93	-5.534717772126788
10	94	-5.777322543869659
10	95	-5.3272307516477335
10	96	-5.320295444266374
10	97	-5.565990913892787
10	98	-5.256864026469328
10	99	-5.767457071452112
10	100	-5.282172753006584
